\relax 
\providecommand\hyper@newdestlabel[2]{}
\catcode `"\active 
\abx@aux@sortscheme{nyt}
\abx@aux@sortnamekeyscheme{global}
\providecommand\HyperFirstAtBeginDocument{\AtBeginDocument}
\HyperFirstAtBeginDocument{\ifx\hyper@anchor\@undefined
\global\let\oldcontentsline\contentsline
\gdef\contentsline#1#2#3#4{\oldcontentsline{#1}{#2}{#3}}
\global\let\oldnewlabel\newlabel
\gdef\newlabel#1#2{\newlabelxx{#1}#2}
\gdef\newlabelxx#1#2#3#4#5#6{\oldnewlabel{#1}{{#2}{#3}}}
\AtEndDocument{\ifx\hyper@anchor\@undefined
\let\contentsline\oldcontentsline
\let\newlabel\oldnewlabel
\fi}
\fi}
\global\let\hyper@last\relax 
\gdef\HyperFirstAtBeginDocument#1{#1}
\providecommand*\HyPL@Entry[1]{}
\HyPL@Entry{0<</S/r>>}
\@writefile{toc}{\boolfalse {citerequest}\boolfalse {citetracker}\boolfalse {pagetracker}\boolfalse {backtracker}\relax }
\@writefile{lof}{\boolfalse {citerequest}\boolfalse {citetracker}\boolfalse {pagetracker}\boolfalse {backtracker}\relax }
\@writefile{lot}{\boolfalse {citerequest}\boolfalse {citetracker}\boolfalse {pagetracker}\boolfalse {backtracker}\relax }
\select@language {german}
\@writefile{toc}{\defcounter {refsection}{0}\relax }\@writefile{toc}{\select@language {german}}
\@writefile{lof}{\defcounter {refsection}{0}\relax }\@writefile{lof}{\select@language {german}}
\@writefile{lot}{\defcounter {refsection}{0}\relax }\@writefile{lot}{\select@language {german}}
\HyPL@Entry{4<</S/D>>}
\@writefile{toc}{\contentsline {chapter}{\numberline {1}Einleitung}{1}{chapter.1}}
\@writefile{lof}{\addvspace {10\p@ }}
\@writefile{lot}{\addvspace {10\p@ }}
\@writefile{lol}{\addvspace {10\p@ }}
\@writefile{toc}{\contentsline {chapter}{\numberline {2}Theoretische Einführung}{2}{chapter.2}}
\@writefile{lof}{\addvspace {10\p@ }}
\@writefile{lot}{\addvspace {10\p@ }}
\@writefile{lol}{\addvspace {10\p@ }}
\newlabel{ch:theo}{{2}{2}{Theoretische Einführung}{chapter.2}{}}
\@writefile{toc}{\contentsline {chapter}{\numberline {3}Bewegungsmodelle}{3}{chapter.3}}
\@writefile{lof}{\addvspace {10\p@ }}
\@writefile{lot}{\addvspace {10\p@ }}
\@writefile{lol}{\addvspace {10\p@ }}
\newlabel{sec:theo:bewegungsmodell}{{3}{3}{Bewegungsmodelle}{chapter.3}{}}
\abx@aux@cite{lueg_implementierung_2016}
\abx@aux@cite{gadke_damaris_2007}
\@writefile{toc}{\contentsline {chapter}{\numberline {4}Experimentelle Details}{4}{chapter.4}}
\@writefile{lof}{\addvspace {10\p@ }}
\@writefile{lot}{\addvspace {10\p@ }}
\@writefile{lol}{\addvspace {10\p@ }}
\newlabel{chapter:exp_details}{{4}{4}{Experimentelle Details}{chapter.4}{}}
\@writefile{toc}{\contentsline {section}{\numberline {4.1}Spektrometer}{4}{section.4.1}}
\newlabel{section:exp:spektrometer}{{4.1}{4}{Spektrometer}{section.4.1}{}}
\@writefile{lof}{\contentsline {figure}{\numberline {\relax 4.1}{\ignorespaces Skizzierter Aufbau eines NMR-Spektrometers. Abbildung aus \cite [S. 29]{lueg_implementierung_2016}\relax }}{4}{figure.caption.2}}
\providecommand*\caption@xref[2]{\@setref\relax\@undefined{#1}}
\newlabel{fig:exp:aufbau}{{\relax 4.1}{4}{Skizzierter Aufbau eines NMR-Spektrometers. Abbildung aus \cite [S. 29]{lueg_implementierung_2016}\relax }{figure.caption.2}{}}
\abx@aux@cite{tilly_master}
\@writefile{toc}{\contentsline {section}{\numberline {4.2}Weiterverarbeitung der Signale}{6}{section.4.2}}
\newlabel{section:exp:weiterverarbeitung}{{4.2}{6}{Weiterverarbeitung der Signale}{section.4.2}{}}
\@writefile{toc}{\contentsline {section}{\numberline {4.3}Probenköpfe}{6}{section.4.3}}
\newlabel{section:exp:probenkoepfe}{{4.3}{6}{Probenköpfe}{section.4.3}{}}
\abx@aux@cite{Rudloff_blue_print}
\newlabel{RF1}{8}
\@writefile{lof}{\contentsline {figure}{\numberline {\relax 4.2}{\ignorespaces Konstruktionszeichnung des Hochtemperaturprobenkopfes \cite {Rudloff_blue_print}.\relax }}{8}{figure.caption.4}}
\newlabel{fig:exp:ofen_aufbau}{{\relax 4.2}{8}{Konstruktionszeichnung des Hochtemperaturprobenkopfes \cite {Rudloff_blue_print}.\relax }{figure.caption.4}{}}
\@writefile{toc}{\contentsline {section}{\numberline {4.4}Temperaturkontrolle}{9}{section.4.4}}
\newlabel{section:exp:temperaturkontrolle}{{4.4}{9}{Temperaturkontrolle}{section.4.4}{}}
\abx@aux@cite{zuern_arbeit}
\@writefile{toc}{\contentsline {section}{\numberline {4.5}Proben}{10}{section.4.5}}
\newlabel{section:exp:proben}{{4.5}{10}{Proben}{section.4.5}{}}
\@writefile{lot}{\contentsline {table}{\numberline {\relax 4.1}{\ignorespaces In dieser Arbeit verwendeten Proben. CRN bezeichnet dabei 2Ca(NO$_\text  {3}$)$_\text  {2}$-3RbNO$_\text  {3}$. \relax }}{10}{table.caption.5}}
\newlabel{tab:exp:proben}{{\relax 4.1}{10}{In dieser Arbeit verwendeten Proben. CRN bezeichnet dabei 2Ca(NO$_\text {3}$)$_\text {2}$-3RbNO$_\text {3}$. \relax }{table.caption.5}{}}
\newlabel{fig:exp:probe_a}{{\relax 4.3a}{10}{\relax }{figure.caption.6}{}}
\newlabel{sub@fig:exp:probe_a}{{a}{10}{\relax }{figure.caption.6}{}}
\newlabel{fig:exp:probe_b}{{\relax 4.3b}{10}{\relax }{figure.caption.6}{}}
\newlabel{sub@fig:exp:probe_b}{{b}{10}{\relax }{figure.caption.6}{}}
\newlabel{fig:exp:probe_c}{{\relax 4.3c}{10}{\relax }{figure.caption.6}{}}
\newlabel{sub@fig:exp:probe_c}{{c}{10}{\relax }{figure.caption.6}{}}
\newlabel{fig:exp:probe_d}{{\relax 4.3d}{10}{\relax }{figure.caption.6}{}}
\newlabel{sub@fig:exp:probe_d}{{d}{10}{\relax }{figure.caption.6}{}}
\@writefile{lof}{\contentsline {figure}{\numberline {\relax 4.3}{\ignorespaces Fotografien der verwendeten Proben. Die Merkmale finden sich in Tabelle \ref  {tab:exp:proben}\relax }}{10}{figure.caption.6}}
\newlabel{fig:exp:proben}{{\relax 4.3}{10}{Fotografien der verwendeten Proben. Die Merkmale finden sich in Tabelle \ref {tab:exp:proben}\relax }{figure.caption.6}{}}
\@writefile{toc}{\contentsline {chapter}{\numberline {5}Experimentelle Resultate und Analysen}{12}{chapter.5}}
\@writefile{lof}{\addvspace {10\p@ }}
\@writefile{lot}{\addvspace {10\p@ }}
\@writefile{lol}{\addvspace {10\p@ }}
\newlabel{chapter:experiment}{{5}{12}{Experimentelle Resultate und Analysen}{chapter.5}{}}
\@writefile{toc}{\contentsline {chapter}{\numberline {6}Zusammenfassung und Ausblick}{13}{chapter.6}}
\@writefile{lof}{\addvspace {10\p@ }}
\@writefile{lot}{\addvspace {10\p@ }}
\@writefile{lol}{\addvspace {10\p@ }}
\@writefile{toc}{\contentsline {chapter}{\nonumberline Literatur}{14}{chapter*.7}}
\@writefile{lof}{\addvspace {10\p@ }}
\@writefile{lot}{\addvspace {10\p@ }}
\@writefile{lol}{\addvspace {10\p@ }}
